{"frames": {

"close-eyes-1":
{
	"frame": {"x":45,"y":64,"w":38,"h":63},
	"rotated": false,
	"trimmed": false,
	"spriteSourceSize": {"x":0,"y":0,"w":38,"h":63},
	"sourceSize": {"w":38,"h":63}
},
"close-eyes-2":
{
	"frame": {"x":85,"y":64,"w":38,"h":63},
	"rotated": false,
	"trimmed": false,
	"spriteSourceSize": {"x":0,"y":0,"w":38,"h":63},
	"sourceSize": {"w":38,"h":63}
},
"close-eyes-3":
{
	"frame": {"x":279,"y":1,"w":39,"h":62},
	"rotated": false,
	"trimmed": false,
	"spriteSourceSize": {"x":0,"y":0,"w":39,"h":62},
	"sourceSize": {"w":39,"h":62}
},
"jump-1":
{
	"frame": {"x":52,"y":1,"w":45,"h":61},
	"rotated": false,
	"trimmed": false,
	"spriteSourceSize": {"x":0,"y":0,"w":45,"h":61},
	"sourceSize": {"w":45,"h":61}
},
"jump-2":
{
	"frame": {"x":1,"y":64,"w":42,"h":63},
	"rotated": false,
	"trimmed": false,
	"spriteSourceSize": {"x":0,"y":0,"w":42,"h":63},
	"sourceSize": {"w":42,"h":63}
},
"jump-3":
{
	"frame": {"x":1,"y":1,"w":49,"h":61},
	"rotated": false,
	"trimmed": false,
	"spriteSourceSize": {"x":0,"y":0,"w":49,"h":61},
	"sourceSize": {"w":49,"h":61}
},
"kick-1":
{
	"frame": {"x":236,"y":1,"w":41,"h":62},
	"rotated": false,
	"trimmed": false,
	"spriteSourceSize": {"x":0,"y":0,"w":41,"h":62},
	"sourceSize": {"w":41,"h":62}
},
"kick-2":
{
	"frame": {"x":221,"y":65,"w":44,"h":62},
	"rotated": false,
	"trimmed": false,
	"spriteSourceSize": {"x":0,"y":0,"w":44,"h":62},
	"sourceSize": {"w":44,"h":62}
},
"kick-3":
{
	"frame": {"x":139,"y":1,"w":47,"h":62},
	"rotated": false,
	"trimmed": false,
	"spriteSourceSize": {"x":0,"y":0,"w":47,"h":62},
	"sourceSize": {"w":47,"h":62}
},
"lean-toward-1":
{
	"frame": {"x":125,"y":65,"w":46,"h":62},
	"rotated": false,
	"trimmed": false,
	"spriteSourceSize": {"x":0,"y":0,"w":46,"h":62},
	"sourceSize": {"w":46,"h":62}
},
"lean-toward-2":
{
	"frame": {"x":173,"y":65,"w":46,"h":62},
	"rotated": false,
	"trimmed": false,
	"spriteSourceSize": {"x":0,"y":0,"w":46,"h":62},
	"sourceSize": {"w":46,"h":62}
},
"lean-toward-3":
{
	"frame": {"x":188,"y":1,"w":46,"h":62},
	"rotated": false,
	"trimmed": false,
	"spriteSourceSize": {"x":0,"y":0,"w":46,"h":62},
	"sourceSize": {"w":46,"h":62}
},
"standing-1":
{
	"frame": {"x":310,"y":65,"w":38,"h":62},
	"rotated": false,
	"trimmed": false,
	"spriteSourceSize": {"x":0,"y":0,"w":38,"h":62},
	"sourceSize": {"w":38,"h":62}
},
"standing-2":
{
	"frame": {"x":99,"y":1,"w":38,"h":61},
	"rotated": false,
	"trimmed": false,
	"spriteSourceSize": {"x":0,"y":0,"w":38,"h":61},
	"sourceSize": {"w":38,"h":61}
},
"standing-3":
{
	"frame": {"x":390,"y":59,"w":38,"h":61},
	"rotated": false,
	"trimmed": false,
	"spriteSourceSize": {"x":0,"y":0,"w":38,"h":61},
	"sourceSize": {"w":38,"h":61}
},
"stun-1":
{
	"frame": {"x":360,"y":1,"w":44,"h":56},
	"rotated": false,
	"trimmed": false,
	"spriteSourceSize": {"x":0,"y":0,"w":44,"h":56},
	"sourceSize": {"w":44,"h":56}
},
"stun-2":
{
	"frame": {"x":406,"y":1,"w":43,"h":56},
	"rotated": false,
	"trimmed": false,
	"spriteSourceSize": {"x":0,"y":0,"w":43,"h":56},
	"sourceSize": {"w":43,"h":56}
},
"stun-3":
{
	"frame": {"x":430,"y":59,"w":40,"h":56},
	"rotated": false,
	"trimmed": false,
	"spriteSourceSize": {"x":0,"y":0,"w":40,"h":56},
	"sourceSize": {"w":40,"h":56}
},
"wave-1":
{
	"frame": {"x":267,"y":65,"w":41,"h":62},
	"rotated": false,
	"trimmed": false,
	"spriteSourceSize": {"x":0,"y":0,"w":41,"h":62},
	"sourceSize": {"w":41,"h":62}
},
"wave-2":
{
	"frame": {"x":320,"y":1,"w":38,"h":62},
	"rotated": false,
	"trimmed": false,
	"spriteSourceSize": {"x":0,"y":0,"w":38,"h":62},
	"sourceSize": {"w":38,"h":62}
},
"wave-3":
{
	"frame": {"x":350,"y":65,"w":38,"h":62},
	"rotated": false,
	"trimmed": false,
	"spriteSourceSize": {"x":0,"y":0,"w":38,"h":62},
	"sourceSize": {"w":38,"h":62}
}},
"meta": {
	"app": "http://www.codeandweb.com/texturepacker",
	"version": "1.0",
	"image": "tux.png",
	"format": "RGBA8888",
	"size": {"w":471,"h":128},
	"scale": "1",
	"smartupdate": "$TexturePacker:SmartUpdate:f1a798471b3450823e8fda0970edd1b2:93ea5e9b10ceb8cd26dd215b5a049f01:a2af8075c887f4eba0ef924cbcaa04a1$"
}
}
